Mathatistics - Tidytable in R
…
2. Adding or Modifying Columns

Add new variables with mutate():

mtcars %>%
  mutate(mpg_double = mpg * 2)

# A tidytable: 32 × 12
     mpg   cyl  disp    hp  drat    wt  qsec    vs    am  gear  carb mpg_double
   <dbl> <dbl> <dbl> <dbl> <dbl> <dbl> <dbl> <dbl> <dbl> <dbl> <dbl>      <dbl>
 1  21       6  160    110  3.9   2.62  16.5     0     1     4     4       42  
 2  21       6  160    110  3.9   2.88  17.0     0     1     4     4       42  
 3  22.8     4  108     93  3.85  2.32  18.6     1     1     4     1       45.6
 4  21.4     6  258    110  3.08  3.22  19.4     1     0     3     1       42.8
 5  18.7     8  360    175  3.15  3.44  17.0     0     0     3     2       37.4
 6  18.1     6  225    105  2.76  3.46  20.2     1     0     3     1       36.2
 7  14.3     8  360    245  3.21  3.57  15.8     0     0     3     4       28.6
 8  24.4     4  147.    62  3.69  3.19  20       1     0     4     2       48.8
 9  22.8     4  141.    95  3.92  3.15  22.9     1     0     4     2       45.6
10  19.2     6  168.   123  3.92  3.44  18.3     1     0     4     4       38.4
# ℹ 22 more rows

Group operations can be directly specified with .by:

mtcars %>%
  mutate(avg_mpg = mean(mpg), .by = cyl)

# A tidytable: 32 × 12
     mpg   cyl  disp    hp  drat    wt  qsec    vs    am  gear  carb avg_mpg
   <dbl> <dbl> <dbl> <dbl> <dbl> <dbl> <dbl> <dbl> <dbl> <dbl> <dbl>   <dbl>
 1  21       6  160    110  3.9   2.62  16.5     0     1     4     4    19.7
 2  21       6  160    110  3.9   2.88  17.0     0     1     4     4    19.7
 3  22.8     4  108     93  3.85  2.32  18.6     1     1     4     1    26.7
 4  21.4     6  258    110  3.08  3.22  19.4     1     0     3     1    19.7
 5  18.7     8  360    175  3.15  3.44  17.0     0     0     3     2    15.1
 6  18.1     6  225    105  2.76  3.46  20.2     1     0     3     1    19.7
 7  14.3     8  360    245  3.21  3.57  15.8     0     0     3     4    15.1
 8  24.4     4  147.    62  3.69  3.19  20       1     0     4     2    26.7
 9  22.8     4  141.    95  3.92  3.15  22.9     1     0     4     2    26.7
10  19.2     6  168.   123  3.92  3.44  18.3     1     0     4     4    19.7
# ℹ 22 more rows
…
5. Reshaping Data

Tidytable makes pivoting intuitive:

iris <- as_tidytable(iris)

iris %>%
  pivot_longer(
    cols = c(Sepal.Length, Sepal.Width),
    names_to = "measurement",
    values_to = "value"
  )

# A tidytable: 300 × 5
   Petal.Length Petal.Width Species measurement  value
          <dbl>       <dbl> <fct>   <chr>        <dbl>
 1          1.4         0.2 setosa  Sepal.Length   5.1
 2          1.4         0.2 setosa  Sepal.Length   4.9
 3          1.3         0.2 setosa  Sepal.Length   4.7
 4          1.5         0.2 setosa  Sepal.Length   4.6
 5          1.4         0.2 setosa  Sepal.Length   5  
 6          1.7         0.4 setosa  Sepal.Length   5.4
 7          1.4         0.3 setosa  Sepal.Length   4.6
 8          1.5         0.2 setosa  Sepal.Length   5  
 9          1.4         0.2 setosa  Sepal.Length   4.4
10          1.5         0.1 setosa  Sepal.Length   4.9
# ℹ 290 more rows
…
# A tidytable: 3 × 3
    cyl avg_mpg max_hp
  <dbl>   <dbl>  <dbl>
1     4    26.7    113
2     6    19.7    175
3     8    15.1    335

Pivoting Data

iris %>%
  pivot_longer(cols = starts_with("Sepal"),
               names_to = "measurement",
               values_to = "value")

# A tidytable: 300 × 5
   Petal.Length Petal.Width Species measurement  value
          <dbl>       <dbl> <fct>   <chr>        <dbl>
 1          1.4         0.2 setosa  Sepal.Length   5.1
 2          1.4         0.2 setosa  Sepal.Length   4.9
 3          1.3         0.2 setosa  Sepal.Length   4.7
 4          1.5         0.2 setosa  Sepal.Length   4.6
 5          1.4         0.2 setosa  Sepal.Length   5  
 6          1.7         0.4 setosa  Sepal.Length   5.4
 7          1.4         0.3 setosa  Sepal.Length   4.6
 8          1.5         0.2 setosa  Sepal.Length   5  
 9          1.4         0.2 setosa  Sepal.Length   4.4
10          1.5         0.1 setosa  Sepal.Length   4.9
# ℹ 290 more rows
…
